…
> nameEx("EEAaq_get_stations")
> ### * EEAaq_get_stations
> 
> flush(stderr()); flush(stdout())
> 
> base::assign(".ptime", proc.time(), pos = "CheckExEnv")
> ### Name: EEAaq_get_stations
> ### Title: Download EEA measurement station information dataset
> ### Aliases: EEAaq_get_stations
> 
> ### ** Examples
> 
> ## No test: 
> EEAaq_get_stations(byStation = TRUE, complete = TRUE)
# A tibble: 7,835 × 83
   Country `B-GNamespace` Year  AirQualityNetwork AirQualityNetworkName Timezone
   <chr>   <chr>          <chr> <chr>             <chr>                 <chr>   
 1 Albania AL.AEF.AQ      2023  NET-AL001A        National Environment… UTC     
 2 Albania AL.AEF.AQ      2023  NET-AL001A        National Environment… UTC     
 3 Albania AL.AEF.AQ      2023  NET-AL001A        National Environment… UTC     
 4 Albania AL.AEF.AQ      2023  NET-AL001A        National Environment… UTC     
 5 Albania AL.AEF.AQ      2023  NET-AL001A        National Environment… UTC     
 6 Albania AL.AEF.AQ      2023  NET-AL001A        National Environment… UTC     
 7 Albania AL.AEF.AQ      2023  NET-AL002A        Institute for Public… UTC     
 8 Albania AL.AEF.AQ      2023  NET-AL002A        Institute for Public… UTC     
 9 Austria AT.0008.20.AQ  2024  NET.01            Amt der Burgenländis… UTC+01  
10 Austria AT.0008.20.AQ  2024  NET.01            Amt der Burgenländis… UTC+01  
# ℹ 7,825 more rows
# ℹ 77 more variables: AirQualityStationEoICode <chr>,
#   AirQualityStationNatCode <chr>, AirQualityStationName <chr>,
#   SamplingPointId <chr>, AirPollutant <chr>, Longitude <dbl>, Latitude <dbl>,
#   Altitude <chr>, AltitudeUnit <chr>, AirQualityStationArea <chr>,
#   AirQualityStationType <chr>, OperationalActivityBegin <dttm>,
#   OperationalActivityEnd <dttm>, SampleId <chr>, InletHeight <chr>, …
…
Post-processing started at 2025-03-14 18:41:57.367448
> 
> ### Export data to csv file
> temp <- tempdir()
> filepath <- paste0(temp, "/data.csv")
> EEAaq_export(data = data, filepath = filepath, format = "csv")
> 
> ### Import the EEAaq_df object saved in the previous code line
> EEAaq_import(file_data = filepath)
# A tibble: 150 × 6
   AirQualityStationEoICode AirQualityStationName DatetimeBegin      
   <chr>                    <chr>                 <dttm>             
 1 IT0477A                  MILANO - V.LE MARCHE  2023-01-01 01:00:00
 2 IT0477A                  MILANO - V.LE MARCHE  2023-01-02 01:00:00
 3 IT0477A                  MILANO - V.LE MARCHE  2023-01-03 01:00:00
 4 IT0477A                  MILANO - V.LE MARCHE  2023-01-04 01:00:00
 5 IT0477A                  MILANO - V.LE MARCHE  2023-01-05 01:00:00
 6 IT0477A                  MILANO - V.LE MARCHE  2023-01-06 01:00:00
 7 IT0477A                  MILANO - V.LE MARCHE  2023-01-07 01:00:00
 8 IT0477A                  MILANO - V.LE MARCHE  2023-01-08 01:00:00
 9 IT0477A                  MILANO - V.LE MARCHE  2023-01-09 01:00:00
10 IT0477A                  MILANO - V.LE MARCHE  2023-01-10 01:00:00
# ℹ 140 more rows
# ℹ 3 more variables: DatetimeEnd <dttm>, AveragingTime <chr>, PM10 <dbl>
…
