…
### Print screen the station-specific statsitics

``` r
summ$Summary_byStat$Mean_byStat
```

```
## # A tibble: 56 x 4
##    AirQualityStationEoICode AirQualityStationName             PM10   NO2
##    <chr>                    <chr>                            <dbl> <dbl>
##  1 BELAL01                  40AL01 - ANTWERPEN                18.0  20.1
##  2 BELAT83                  40AT83 - BERENDRECHT              18.0  20.1
##  3 BELHB23                  40HB23 - HOBOKEN                  18.0  20.1
##  4 BETB001                  41B001 - BRUSSEL (Kunst-Wet)      18.0  20.1
##  5 BETB004                  41B004 - STE.CATHERI              18.0  20.1
##  6 BETB006                  41B006 - PARL.EUROPE              18.0  20.1
##  7 BETB008                  41B008 - Brussel (Beliardstraat)  18.0  20.1
##  8 BETB011                  41B011 - BERCHEM S.A              18.0  20.1
##  9 BETBUL1                  41BUL1 - BRUXELLES                18.0  20.1
## 10 BETCHA1                  41CHA1 - GANSHOREN                18.0  20.1
## # i 46 more rows
```

### Print screen the linear correlation matrix

``` r
summ$Corr_Matrix
```

```
## # A tibble: 56 x 4
##    AirQualityStationEoICode AirQualityStationName            PM10_NO2 NO2_PM10
##    <chr>                    <chr>                               <dbl>    <dbl>
##  1 BELAL01                  40AL01 - ANTWERPEN                  0.431    0.431
##  2 BELAT83                  40AT83 - BERENDRECHT                0.152    0.152
##  3 BELHB23                  40HB23 - HOBOKEN                   NA       NA    
##  4 BETB001                  41B001 - BRUSSEL (Kunst-Wet)       NA       NA    
##  5 BETB004                  41B004 - STE.CATHERI               NA       NA    
##  6 BETB006                  41B006 - PARL.EUROPE               NA       NA    
##  7 BETB008                  41B008 - Brussel (Beliardstraat)   NA       NA    
##  8 BETB011                  41B011 - BERCHEM S.A                0.495    0.495
##  9 BETBUL1                  41BUL1 - BRUXELLES                 NA       NA    
## 10 BETCHA1                  41CHA1 - GANSHOREN                 NA       NA    
## # i 46 more rows
```
…
### Print screen of the aggregated (monthly) data

``` r
t_aggr$TimeAggr
```

```
## # A tibble: 668 x 11
##    AirQualityStationEoICode AirQualityStationName Date       PM10_min PM10_max
##    <chr>                    <chr>                 <date>        <dbl>    <dbl>
##  1 BELAL01                  40AL01 - ANTWERPEN    2023-01-01      3.9     77.4
##  2 BELAL01                  40AL01 - ANTWERPEN    2023-02-01      5.4     76.4
##  3 BELAL01                  40AL01 - ANTWERPEN    2023-03-01      4.4     87.4
##  4 BELAL01                  40AL01 - ANTWERPEN    2023-04-01      3.9     82.9
##  5 BELAL01                  40AL01 - ANTWERPEN    2023-05-01      8.4    165. 
##  6 BELAL01                  40AL01 - ANTWERPEN    2023-06-01      6.9     65.9
##  7 BELAL01                  40AL01 - ANTWERPEN    2023-07-01      4.9     49.9
##  8 BELAL01                  40AL01 - ANTWERPEN    2023-08-01      5.4     54.4
##  9 BELAL01                  40AL01 - ANTWERPEN    2023-09-01      5.4    115. 
## 10 BELAL01                  40AL01 - ANTWERPEN    2023-10-01      4.9     51.4
## # i 658 more rows
## # i 6 more variables: PM10_mean <dbl>, PM10_median <dbl>, NO2_min <dbl>,
## #   NO2_max <dbl>, NO2_mean <dbl>, NO2_median <dbl>
```

### Print screen of the PM$_{10}$ aggregated data only

``` r
t_aggr$TimeAggr_byPollutant$PM10
```

```
## # A tibble: 668 x 7
##    AirQualityStationEoICode AirQualityStationName Date         min   max  mean
##    <chr>                    <chr>                 <date>     <dbl> <dbl> <dbl>
##  1 BELAL01                  40AL01 - ANTWERPEN    2023-01-01   3.9  77.4  19.1
##  2 BELAL01                  40AL01 - ANTWERPEN    2023-02-01   5.4  76.4  27.3
##  3 BELAL01                  40AL01 - ANTWERPEN    2023-03-01   4.4  87.4  16.1
##  4 BELAL01                  40AL01 - ANTWERPEN    2023-04-01   3.9  82.9  20.1
##  5 BELAL01                  40AL01 - ANTWERPEN    2023-05-01   8.4 165.   24.5
##  6 BELAL01                  40AL01 - ANTWERPEN    2023-06-01   6.9  65.9  24.9
##  7 BELAL01                  40AL01 - ANTWERPEN    2023-07-01   4.9  49.9  14.8
##  8 BELAL01                  40AL01 - ANTWERPEN    2023-08-01   5.4  54.4  15.3
##  9 BELAL01                  40AL01 - ANTWERPEN    2023-09-01   5.4 115.   20.6
## 10 BELAL01                  40AL01 - ANTWERPEN    2023-10-01   4.9  51.4  17.3
## # i 658 more rows
## # i 1 more variable: median <dbl>
```
…
